Predicting Condominium Sale Prices
…
# the most expensive home sale listed at the address "220 Central Park South, 50" is an outlier,
# but it is not an erroneous entry
# this sale record will remain in the dataframe

Now lets investigate the sale record of around $30 million in the Brooklyn borough and determine if the sale_price reflects multiple units.

# sort the records by sale price for the Brookyln borough
NYC_condos_brooklyn_sorted <- NYC_condos %>%
  filter(borough == "Brooklyn") %>%
  arrange(desc(sale_price))

# display the first 100 rows
head(NYC_condos_brooklyn_sorted, 100)

## # A tibble: 100 x 20
##    borough  neighborhood building_class_category  tax_class_at_pres~ block   lot
##    <chr>    <chr>        <chr>                    <chr>              <dbl> <dbl>
##  1 Brooklyn Gowanus      13 Condos - Elevator Ap~ 2                   1046  1001
##  2 Brooklyn Gowanus      13 Condos - Elevator Ap~ 2                   1046  1002
##  3 Brooklyn Gowanus      13 Condos - Elevator Ap~ 2                   1046  1003
##  4 Brooklyn Gowanus      13 Condos - Elevator Ap~ 2                   1046  1004
##  5 Brooklyn Gowanus      13 Condos - Elevator Ap~ 2                   1046  1005
##  6 Brooklyn Gowanus      13 Condos - Elevator Ap~ 2                   1046  1006
##  7 Brooklyn Gowanus      13 Condos - Elevator Ap~ 2                   1046  1007
##  8 Brooklyn Gowanus      13 Condos - Elevator Ap~ 2                   1046  1008
##  9 Brooklyn Gowanus      13 Condos - Elevator Ap~ 2                   1046  1009
## 10 Brooklyn Gowanus      13 Condos - Elevator Ap~ 2                   1046  1010
## # ... with 90 more rows, and 14 more variables:
## #   building_class_at_present <chr>, address <chr>, apartment_number <chr>,
## #   zip_code <dbl>, residential_units <dbl>, commercial_units <dbl>,
## #   total_units <dbl>, land_square_feet <dbl>, gross_square_feet <dbl>,
## #   year_built <dbl>, tax_class_at_time_of_sale <dbl>,
## #   building_class_at_time_of_sale <chr>, sale_price <dbl>, sale_date <dttm>
…
